/home/dave/Development/hyflex-top/rickq/hyflex/hyflex-hh-eph/src/main/java/fr/lalea/eph/BenchmarkParameters.java
/home/dave/Development/hyflex-top/rickq/hyflex/hyflex-hh-eph/src/main/java/fr/lalea/eph/IndividualRun.java
/home/dave/Development/hyflex-top/rickq/hyflex/hyflex-hh-eph/src/main/java/fr/lalea/eph/EPH.java
/home/dave/Development/hyflex-top/rickq/hyflex/hyflex-hh-eph/src/main/java/fr/lalea/eph/ProblemDomainFactory.java
/home/dave/Development/hyflex-top/rickq/hyflex/hyflex-hh-eph/src/main/java/fr/lalea/eph/EphCommand.java
